SKBO000000001-20180417-06:40-LHBP
SKBO000000002-20180417-04:18-SUAA
SKBO000000003-20180417-10:44-ESKN
SKBO000000004-20180417-09:01-LGAV
SKBO000000005-20180417-09:11-LHBP
SKBO000000006-20180417-14:27-EPMO
SKBO000000007-20180417-15:24-LPPT
SKBO000000008-20180417-09:52-EETN
SKBO000000009-20180417-13:56-EETN
SKBO000000010-20180417-15:47-ESKN
SKBO000000011-20180417-11:18-SCEL
SKBO000000012-20180417-16:47-BIKF
SKBO000000013-20180417-19:54-LZIB
SKBO000000014-20180417-19:02-EFHK
SKBO000000015-20180417-17:44-EBCI
SKBO000000016-20180417-23:53-LEMD
SKBO000000017-20180417-19:44-EIDW
SKBO000000018-20180417-21:57-EETN
SKBO000000019-20180417-19:21-LZIB
SKBO000000020-20180417-18:16-SUAA
SKBO000000021-20180417-22:42-EPMO
SKBO000000022-20180418-02:40-SGAS
SKBO000000023-20180418-00:28-EETN
SKBO000000024-20180418-13:50-SCEL
SKBO000000025-20180418-10:50-SUAA
SKBO000000026-20180418-13:33-SCEL
SKBO000000027-20180418-13:23-EIDW
SKBO000000028-20180418-10:36-SPIM
SKBO000000029-20180418-08:11-SCEL
SKBO000000030-20180418-08:39-EIDW
SKBO000000031-20180418-11:17-EHAM
BIKF000000001-20180417-07:27-LDZA
BIKF000000002-20180417-03:58-EVRA
BIKF000000003-20180417-14:06-SBBR
BIKF000000004-20180417-15:01-SPIM
BIKF000000005-20180417-12:13-LHBP
BIKF000000006-20180417-12:40-LIRA
BIKF000000007-20180417-14:42-SEQM
BIKF000000008-20180417-14:21-ELLX
BIKF000000009-20180417-09:26-LZIB
BIKF000000010-20180417-12:14-EKCH
BIKF000000011-20180417-09:54-LSZB
BIKF000000012-20180417-22:09-LPPT
BIKF000000013-20180417-19:13-ESKN
BIKF000000014-20180417-19:28-SLLP
BIKF000000015-20180417-18:55-LFPG
BIKF000000016-20180417-17:27-LBSF
BIKF000000017-20180417-20:37-LGAV
BIKF000000018-20180417-21:02-EPMO
BIKF000000019-20180417-22:43-LOWW
BIKF000000020-20180417-16:22-LOWW
BIKF000000021-20180417-16:37-LDZA
BIKF000000022-20180418-04:08-LOWW
BIKF000000023-20180418-03:30-LJLJ
BIKF000000024-20180418-10:37-LZIB
BIKF000000025-20180418-12:50-UMMS
BIKF000000026-20180418-15:29-LFPG
BIKF000000027-20180418-14:13-LSZB
BIKF000000028-20180418-15:20-LIRA
BIKF000000029-20180418-11:11-SGAS
EBCI000000001-20180417-07:45-EHAM
EBCI000000002-20180417-05:49-LATI
EBCI000000003-20180417-12:24-LPPT
EBCI000000004-20180417-08:26-LMML
EBCI000000005-20180417-15:58-SBBR
EBCI000000006-20180417-11:46-LJLJ
EBCI000000007-20180417-14:37-LDZA
EBCI000000008-20180417-15:50-LATI
EBCI000000009-20180417-13:24-ESKN
EBCI000000010-20180417-15:42-SCEL
EBCI000000011-20180417-15:13-LPPT
EBCI000000012-20180417-18:02-SEQM
EBCI000000013-20180417-21:23-EFHK
EBCI000000014-20180417-23:34-EKCH
EBCI000000015-20180417-23:19-SBBR
EBCI000000016-20180417-18:01-EPMO
EBCI000000017-20180417-19:37-LEMD
EBCI000000018-20180417-21:06-SPIM
EBCI000000019-20180417-22:37-SGAS
EBCI000000020-20180417-23:45-EKCH
EBCI000000021-20180417-19:40-SLLP
EBCI000000022-20180418-00:16-ELLX
EBCI000000023-20180418-00:46-EIDW
EBCI000000024-20180418-15:43-ENGM
EBCI000000025-20180418-14:37-EIDW
EBCI000000026-20180418-09:42-LZIB
EBCI000000027-20180418-15:43-UMMS
EBCI000000028-20180418-14:48-LOWW
EBCI000000029-20180418-15:10-SUAA
EETN000000001-20180417-01:46-LZIB
EETN000000002-20180417-02:51-SUAA
EETN000000003-20180417-13:53-EKCH
EETN000000004-20180417-14:39-ENGM
EETN000000005-20180417-11:32-LZIB
EETN000000006-20180417-13:14-SEQM
EETN000000007-20180417-14:10-LZIB
EETN000000008-20180417-14:13-SUAA
EETN000000009-20180417-08:41-SPIM
EETN000000010-20180417-10:46-SGAS
EETN000000011-20180417-15:45-SLLP
EETN000000012-20180417-23:58-ELLX
EETN000000013-20180417-20:05-EFHK
EETN000000014-20180417-22:05-EDDI
EETN000000015-20180417-23:45-BIKF
EETN000000016-20180417-18:42-SUAA
EETN000000017-20180417-23:23-LEMD
EETN000000018-20180417-18:10-SUAA
EETN000000019-20180417-19:56-LDZA
EETN000000020-20180417-16:35-LMML
EETN000000021-20180417-21:59-LKPR
EETN000000022-20180418-05:36-ENGM
EETN000000023-20180418-00:52-BIKF
EGLL000000001-20180417-02:36-LZIB
EGLL000000002-20180417-02:11-LMML
EGLL000000003-20180417-15:20-EKCH
EGLL000000004-20180417-15:41-EHAM
EGLL000000005-20180417-10:36-SKBO
EGLL000000006-20180417-09:32-SUAA
EGLL000000007-20180417-14:33-BIKF
EGLL000000008-20180417-13:54-LEMD
EGLL000000009-20180417-12:21-LEMD
EGLL000000010-20180417-12:13-LMML
EGLL000000011-20180417-09:56-LZIB
EGLL000000012-20180417-21:47-LGAV
EGLL000000013-20180417-23:39-LOWW
EGLL000000014-20180417-21:42-LSZB
EGLL000000015-20180417-22:23-SVMI
EGLL000000016-20180417-21:55-LOWW
EGLL000000017-20180417-23:15-SKBO
EGLL000000018-20180417-18:46-SPIM
EGLL000000019-20180417-19:16-ESKN
EGLL000000020-20180417-18:21-ENGM
EGLL000000021-20180417-17:54-EDDI
EGLL000000022-20180418-02:07-ELLX
EGLL000000023-20180418-07:44-ELLX
SABE000000001-20180417-07:09-LIRA
SABE000000002-20180417-06:43-SCEL
SABE000000003-20180417-12:43-EPMO
SABE000000004-20180417-09:57-SKBO
SABE000000005-20180417-14:37-SLLP
SABE000000006-20180417-14:30-LKPR
SABE000000007-20180417-11:24-LMML
SABE000000008-20180417-08:54-LEMD
SABE000000009-20180417-09:12-SBBR
SABE000000010-20180417-11:50-LPPT
SABE000000011-20180417-08:59-EKCH
SABE000000012-20180417-18:22-SBBR
SABE000000013-20180417-19:04-EVRA
SABE000000014-20180417-20:55-LZIB
SABE000000015-20180417-19:50-LKPR
SABE000000016-20180417-18:26-ELLX
SABE000000017-20180417-22:37-EHAM
SABE000000018-20180417-17:35-EBCI
SABE000000019-20180417-17:15-LKPR
SABE000000020-20180417-17:32-SKBO
SABE000000021-20180417-19:38-EIDW
SABE000000022-20180418-01:40-EDDI
SABE000000023-20180418-04:42-LATI
SABE000000024-20180418-13:05-EBCI
SABE000000025-20180418-08:50-ENGM
SABE000000026-20180418-10:54-SPIM
EBCI000000001-20180417-05:50-LJLJ
EBCI000000002-20180417-01:03-LPPT
EBCI000000003-20180417-08:09-LSZB
EBCI000000004-20180417-13:10-EDDI
EBCI000000005-20180417-09:05-LEMD
EBCI000000006-20180417-13:23-SLLP
EBCI000000007-20180417-11:17-LDZA
EBCI000000008-20180417-13:29-EFHK
EBCI000000009-20180417-12:01-LSZB
EBCI000000010-20180417-14:05-LJLJ
EBCI000000011-20180417-14:39-LFPG
EBCI000000012-20180417-22:40-LMML
EBCI000000013-20180417-20:17-LATI
EBCI000000014-20180417-23:29-LMML
EBCI000000015-20180417-20:49-EHAM
EBCI000000016-20180417-23:49-SGAS
EBCI000000017-20180417-17:20-SABE
EBCI000000018-20180417-21:14-LEMD
EBCI000000019-20180417-22:58-LATI
EBCI000000020-20180417-21:57-SCEL
EBCI000000021-20180417-23:05-EDDI
EBCI000000022-20180418-02:41-SABE
EBCI000000023-20180418-02:44-ELLX
EBCI000000024-20180418-11:25-LSZB
EBCI000000025-20180418-09:27-EFHK
EBCI000000026-20180418-08:07-LDZA
EBCI000000027-20180418-09:57-LDZA
EBCI000000028-20180418-08:28-LGAV
EBCI000000029-20180418-15:54-LIRA
EFHK000000083-20180420-10:21-SPIM
EFHK000000084-20180420-12:48-SEQM
EFHK000000085-20180420-11:04-EIDW
EFHK000000086-20180420-22:23-LBSF
EFHK000000087-20180420-18:44-EETN
EFHK000000088-20180420-22:43-LEMD
EFHK000000089-20180420-21:17-SBBR
EFHK000000090-20180420-16:51-LKPR
EFHK000000091-20180420-17:18-EHAM
EFHK000000092-20180420-19:40-LOWW
EFHK000000093-20180420-17:11-SLLP
EFHK000000094-20180420-17:06-SGAS
EFHK000000095-20180420-22:25-ELLX
EFHK000000096-20180420-16:36-SLLP
EFHK000000097-20180420-23:32-SGAS
EFHK000000098-20180420-20:33-LJLJ
EFHK000000099-20180421-06:09-ESKN
EKCH000000058-20180419-10:31-EHAM
EKCH000000059-20180419-19:49-LSZB
EKCH000000060-20180419-19:13-LDZA
EKCH000000061-20180419-20:44-SEQM
EKCH000000062-20180419-23:23-EVRA
EKCH000000063-20180419-16:36-EIDW
EKCH000000064-20180419-16:38-LKPR
EKCH000000065-20180419-19:40-SKBO
EKCH000000066-20180419-16:37-LBSF
EKCH000000067-20180419-22:43-LJLJ
EKCH000000068-20180419-20:52-LATI
EKCH000000069-20180419-17:45-LATI
EKCH000000070-20180419-22:20-EVRA
EKCH000000071-20180420-06:06-LHBP
EKCH000000072-20180420-03:58-LPPT
EKCH000000073-20180420-01:46-LDZA
EKCH000000074-20180420-08:57-SUAA
EKCH000000075-20180420-14:52-LKPR
EKCH000000076-20180420-09:13-SEQM
EKCH000000077-20180420-13:02-LSZB
EKCH000000078-20180420-12:01-LZIB
UMMS000000181-20180423-22:53-LKPR
UMMS000000182-20180423-23:49-EKCH
UMMS000000183-20180423-17:59-LSZB
UMMS000000184-20180423-18:30-SABE
UMMS000000185-20180423-23:45-LPPT
UMMS000000186-20180423-19:50-EVRA
UMMS000000187-20180423-21:17-EPMO
UMMS000000188-20180423-19:55-EHAM
UMMS000000189-20180423-23:06-SBBR
UMMS000000190-20180424-02:24-SPIM
UMMS000000191-20180424-01:09-EFHK
UMMS000000192-20180424-00:01-LMML
UMMS000000193-20180424-00:23-LKPR
UMMS000000194-20180424-11:46-SGAS
UMMS000000195-20180424-11:51-LBSF
UMMS000000196-20180424-12:44-EDDI
UMMS000000197-20180424-09:12-LEMD
UMMS000000198-20180424-13:52-LKPR
UMMS000000199-20180424-15:28-LOWW
UMMS000000200-20180424-14:10-EKCH
UMMS000000201-20180424-13:40-LDZA
